{
  "type": "minecraft:chest",
  "pools": [
    {
      "bonus_rolls": 0.0,
      "entries": [
        {
          "type": "minecraft:item",
          "name": "dungeons_plus:frosted_cowl"
        }
      ],
      "rolls": 1.0
    },
    {
      "bonus_rolls": 0.0,
      "entries": [
        {
          "type": "minecraft:loot_table",
          "name": "dungeons_plus:chests/snowy_temple/common"
        }
      ],
      "rolls": 1.0
    }
  ]
}