{
  "elements": [
    {
      "element": {
        "element_type": "structure_gel:gel_single_pool_element",
        "ignoreEntities": false,
        "location": "dungeons_plus:end_ruins/tower/top_2",
        "maintainWater": true,
        "processors": "dungeons_plus:end_ruins_tower",
        "projection": "rigid"
      },
      "weight": 1
    },
    {
      "element": {
        "element_type": "structure_gel:gel_single_pool_element",
        "ignoreEntities": false,
        "location": "dungeons_plus:end_ruins/tower/top_1",
        "maintainWater": true,
        "processors": "dungeons_plus:end_ruins_tower",
        "projection": "rigid"
      },
      "weight": 1
    }
  ],
  "fallback": "minecraft:empty"
}