{
  "type": "dungeons_plus:snowy_temple",
  "biomes": "#dungeons_plus:has_structure/has_snowy_temple",
  "spawn_overrides": {
    "monster": {
      "bounding_box": "full",
      "spawns": [
        {
          "type": "minecraft:stray",
          "maxCount": 4,
          "minCount": 1,
          "weight": 1
        }
      ]
    }
  },
  "step": "surface_structures",
  "terrain_adaptation": "beard_thin"
}