{
  "parent": "dungeons_plus:adventure/find_tower",
  "criteria": {
    "in_frozen": {
      "conditions": {
        "player": [
          {
            "condition": "minecraft:entity_properties",
            "entity": "this",
            "predicate": {
              "location": {
                "structure": "dungeons_plus:reanimated_ruins_frozen"
              }
            }
          }
        ]
      },
      "trigger": "minecraft:location"
    },
    "in_mesa": {
      "conditions": {
        "player": [
          {
            "condition": "minecraft:entity_properties",
            "entity": "this",
            "predicate": {
              "location": {
                "structure": "dungeons_plus:reanimated_ruins_mesa"
              }
            }
          }
        ]
      },
      "trigger": "minecraft:location"
    },
    "in_mossy": {
      "conditions": {
        "player": [
          {
            "condition": "minecraft:entity_properties",
            "entity": "this",
            "predicate": {
              "location": {
                "structure": "dungeons_plus:reanimated_ruins_mossy"
              }
            }
          }
        ]
      },
      "trigger": "minecraft:location"
    }
  },
  "display": {
    "announce_to_chat": true,
    "description": {
      "translate": "dungeons_plus:advancements.adventure.find_reanimated_ruins.description"
    },
    "frame": "task",
    "hidden": false,
    "icon": {
      "item": "minecraft:mossy_cobblestone"
    },
    "show_toast": true,
    "title": {
      "translate": "dungeons_plus:advancements.adventure.find_reanimated_ruins.title"
    }
  },
  "requirements": [
    [
      "in_mossy",
      "in_mesa",
      "in_frozen"
    ]
  ]
}