{
  "parent": "dungeons_plus:adventure/find_leviathan",
  "criteria": {
    "hit_zombie_villager": {
      "conditions": {
        "damage": {
          "source_entity": {
            "equipment": {
              "mainhand": {
                "items": [
                  "dungeons_plus:leviathan_blade"
                ]
              }
            }
          }
        },
        "entity": [
          {
            "condition": "minecraft:entity_properties",
            "entity": "this",
            "predicate": {
              "type": "minecraft:zombie_villager"
            }
          }
        ]
      },
      "trigger": "minecraft:player_hurt_entity"
    }
  },
  "display": {
    "announce_to_chat": true,
    "description": {
      "translate": "dungeons_plus:advancements.adventure.zombie_villager_leviathan.description"
    },
    "frame": "task",
    "hidden": false,
    "icon": {
      "item": "dungeons_plus:leviathan_blade",
      "nbt": "{Damage:0}"
    },
    "show_toast": true,
    "title": {
      "translate": "dungeons_plus:advancements.adventure.zombie_villager_leviathan.title"
    }
  },
  "requirements": [
    [
      "hit_zombie_villager"
    ]
  ]
}