{
  "parent": "minecraft:end/enter_end_gateway",
  "criteria": {
    "in_structure": {
      "conditions": {
        "player": [
          {
            "condition": "minecraft:entity_properties",
            "entity": "this",
            "predicate": {
              "location": {
                "structure": "dungeons_plus:end_ruins"
              }
            }
          }
        ]
      },
      "trigger": "minecraft:location"
    }
  },
  "display": {
    "announce_to_chat": true,
    "description": {
      "translate": "dungeons_plus:advancements.end.find_end_ruins.description"
    },
    "frame": "goal",
    "hidden": false,
    "icon": {
      "item": "minecraft:end_stone_bricks"
    },
    "show_toast": true,
    "title": {
      "translate": "dungeons_plus:advancements.end.find_end_ruins.title"
    }
  },
  "requirements": [
    [
      "in_structure"
    ]
  ]
}